…
## Examples

``` r
# Return rank table
collaboration_rank(
  data = pq_data,
  return = "table"
)
#> # A tibble: 22 × 4
#>    hrvar            group      Collaboration_hours     n
#>    <chr>            <chr>                    <dbl> <int>
#>  1 FunctionType     Technician                23.6   274
#>  2 Organization     Operations                23.5    22
#>  3 Organization     Research                  23.3    52
#>  4 Level            Level1                    23.2    37
#>  5 LevelDesignation Executive                 23.2    37
#>  6 Organization     HR                        23.1    33
#>  7 Level            Level3                    23.1    87
#>  8 LevelDesignation Senior IC                 23.1    87
#>  9 Organization     Finance                   23.1    68
#> 10 Organization     Sales                     23.1    13
#> # ℹ 12 more rows
…
