Rank all groups across HR attributes on a selected Viva Insights metric — create_rank • vivainsights
…
# \donttest{
# Return a table - combination mode
create_rank(
  data = pq_data_small,
  metric = "Emails_sent",
  mode = "combine",
  return = "table"
)
#> # A tibble: 222 × 4
#>    hrvar    group                                                  Email…¹     n
#>    <chr>    <chr>                                                    <dbl> <int>
#>  1 Combined [LevelDesignation] Director [SupervisorIndicator] Man…    97.9    31
#>  2 Combined [LevelDesignation] Manager [SupervisorIndicator] Mana…    62.9    61
#>  3 Combined [LevelDesignation] Junior IC [SupervisorIndicator] In…    38.5    53
#>  4 Combined [LevelDesignation] Senior IC [SupervisorIndicator] In…    38.1    88
#>  5 Combined [LevelDesignation] Support [SupervisorIndicator] Indi…    37.2   283
#>  6 Combined [LevelDesignation] Director [Organization] Finance       108.      8
#>  7 Combined [LevelDesignation] Director [Organization] HR             99.7     8
#>  8 Combined [LevelDesignation] Director [Organization] Product        92.5     7
#>  9 Combined [LevelDesignation] Director [Organization] Sales and …    90.9     8
#> 10 Combined [LevelDesignation] Manager [Organization] Sales and M…    66.0    15
#> # … with 212 more rows, and abbreviated variable name ¹​Emails_sent
…
