…
# Return a table
create_rank(
  data = pq_data_small,
  metric = "Emails_sent",
  return = "table"
)
#> 1 column(s) excluded due to max_unique = 50: PersonId (279).
#> Adjust the `max_unique` argument if you wish to include these columns.
#> # A tibble: 22 × 4
#>    hrvar               group     Emails_sent     n
#>    <chr>               <chr>           <dbl> <int>
#>  1 FunctionType        Advisor          45.8    83
#>  2 Organization        IT               45.3    61
#>  3 Organization        Research         44.7    46
#>  4 FunctionType        Manager          44.5   140
#>  5 Level               Level4           44.3   126
#>  6 LevelDesignation    Junior IC        44.3   126
#>  7 SupervisorIndicator IC               44.3    32
#>  8 Organization        Finance          44.0    65
#>  9 SupervisorIndicator Manager          43.7   247
#> 10 Level               Level3           43.7    84
#> # ℹ 12 more rows

# \donttest{
# Return a table - combination mode
create_rank(
  data = pq_data_small,
  metric = "Emails_sent",
  mode = "combine",
  return = "table"
)
#> 1 column(s) excluded due to max_unique = 50: PersonId (279).
#> Adjust the `max_unique` argument if you wish to include these columns.
#> # A tibble: 296 × 4
#>    hrvar    group                                              Emails_sent     n
#>    <chr>    <chr>                                                    <dbl> <int>
#>  1 Combined [FunctionType] Advisor [SupervisorIndicator] IC           52.3     8
#>  2 Combined [FunctionType] Manager [SupervisorIndicator] IC           49.5    19
#>  3 Combined [FunctionType] Advisor [SupervisorIndicator] Mana…        45.1    75
#>  4 Combined [FunctionType] Specialist [SupervisorIndicator] M…        43.8   146
#>  5 Combined [FunctionType] Manager [SupervisorIndicator] Mana…        43.7   121
#>  6 Combined [FunctionType] Consultant [SupervisorIndicator] M…        43.4    77
#>  7 Combined [FunctionType] Technician [SupervisorIndicator] M…        43.0    45
#>  8 Combined [FunctionType] Technician [SupervisorIndicator] IC        42.7     6
#>  9 Combined [FunctionType] Consultant [SupervisorIndicator] IC        40      11
#> 10 Combined [FunctionType] Specialist [SupervisorIndicator] IC        39.2    23
#> # ℹ 286 more rows
…
