Create combination pairs of HR variables and run 'create_rank()' — create_rank_combine • vivainsights
…
    This function is called when the mode argument in create_rank() is
specified as "combine".

    Examples

# Use a small sample for faster runtime
pq_data_small <- dplyr::slice_sample(pq_data, prop = 0.1)

create_rank_combine(
  data = pq_data_small,
  metric = "Email_hours",
  hrvar = c("Organization", "FunctionType", "LevelDesignation")
)
#> # A tibble: 140 × 4
#>    hrvar    group                                              Email_hours     n
#>    <chr>    <chr>                                                    <dbl> <int>
#>  1 Combined [Organization] Sales [FunctionType] Specialist           10.2      6
#>  2 Combined [Organization] Operations [FunctionType] Advisor         10.2      8
#>  3 Combined [Organization] HR [FunctionType] Technician               9.94    12
#>  4 Combined [Organization] Research [FunctionType] Consultant         9.84    11
#>  5 Combined [Organization] HR [FunctionType] Advisor                  9.75     7
#>  6 Combined [Organization] HR [FunctionType] Specialist               9.74    19
#>  7 Combined [Organization] Operations [FunctionType] Manager          9.63     8
#>  8 Combined [Organization] Operations [FunctionType] Speciali…        9.49     9
#>  9 Combined [Organization] Research [FunctionType] Technician         9.43    12
#> 10 Combined [Organization] Finance [FunctionType] Technician          9.39    17
#> # ℹ 130 more rows
…
