Rank groups with high External Collaboration Hours — external_rank • vivainsights
…
Other After-hours Collaboration: 
afterhours_dist(),
afterhours_fizz(),
afterhours_line(),
afterhours_rank(),
afterhours_summary(),
afterhours_trend()

    Examples

# Return rank table
external_rank(data = pq_data, return = "table")
#> # A tibble: 21 × 4
#>    hrvar               group               External_collaboration_hours     n
#>    <chr>               <chr>                                      <dbl> <int>
#>  1 LevelDesignation    Director                                    6.26     6
#>  2 SupervisorIndicator Manager+                                    6.26     6
#>  3 FunctionType        Sales                                       4.96    11
#>  4 FunctionType        Marketing                                   2.90    12
#>  5 Organization        Sales and Marketing                         2.87    31
#>  6 Organization        HR                                          2.70    21
#>  7 Organization        Finance                                     2.64    27
#>  8 FunctionType        G_and_A                                     2.62     6
#>  9 FunctionType        Customer_Service                            2.54    12
#> 10 WeekendDays         [SUNDAY, SATURDAY]                          2.44   100
#> # ℹ 11 more rows
…
