…
Other After-hours Collaboration:
[`afterhours_dist()`](https://microsoft.github.io/vivainsights/reference/afterhours_dist.md),
[`afterhours_fizz()`](https://microsoft.github.io/vivainsights/reference/afterhours_fizz.md),
[`afterhours_line()`](https://microsoft.github.io/vivainsights/reference/afterhours_line.md),
[`afterhours_rank()`](https://microsoft.github.io/vivainsights/reference/afterhours_rank.md),
[`afterhours_summary()`](https://microsoft.github.io/vivainsights/reference/afterhours_summary.md),
[`afterhours_trend()`](https://microsoft.github.io/vivainsights/reference/afterhours_trend.md)

## Examples

``` r
# Return rank table
external_rank(data = pq_data, return = "table")
#> # A tibble: 22 × 4
#>    hrvar               group      External_collaboration_hours     n
#>    <chr>               <chr>                             <dbl> <int>
#>  1 FunctionType        Technician                         9.31   274
#>  2 Organization        Operations                         9.27    22
#>  3 Level               Level1                             9.11    37
#>  4 LevelDesignation    Executive                          9.11    37
#>  5 Organization        Research                           9.11    52
#>  6 Organization        Sales                              9.01    13
#>  7 Organization        Finance                            8.97    68
#>  8 Level               Level3                             8.96    87
#>  9 LevelDesignation    Senior IC                          8.96    87
#> 10 SupervisorIndicator Manager                            8.95   266
#> # ℹ 12 more rows
…
