Extract HR attribute variables — extract_hr • vivainsights
…
Other Data Validation: 
hr_trend(),
hrvar_count_all(),
hrvar_count(),
hrvar_trend()

    Examples

pq_data %>% extract_hr(return = "names")
#> [1] "LevelDesignation"    "SupervisorIndicator" "Organization"       
#> [4] "FunctionType"        "WeekendDays"        

pq_data %>% extract_hr(return = "vars")
#> # A tibble: 5,593 × 5
#>    LevelDesignation SupervisorIndicator    Organization        Functio…¹ Weeke…²
#>    <chr>            <chr>                  <chr>               <chr>     <chr>  
#>  1 Junior IC        Individual Contributor Product             G_and_A   [SUNDA…
#>  2 Manager          Manager                Sales and Marketing G_and_A   [SUNDA…
#>  3 Support          Individual Contributor Finance             Engineer… [SUNDA…
#>  4 Support          Individual Contributor Finance             Sales     [SUNDA…
#>  5 Director         Manager+               Sales and Marketing Customer… [SUNDA…
#>  6 Support          Individual Contributor Product             IT        [SUNDA…
#>  7 Director         Manager+               Sales and Marketing Analytics [SUNDA…
#>  8 Support          Individual Contributor Sales and Marketing IT        [SUNDA…
#>  9 Support          Individual Contributor Finance             IT        [SUNDA…
#> 10 Support          Individual Contributor HR                  Engineer… [SUNDA…
#> # … with 5,583 more rows, and abbreviated variable names ¹​FunctionType,
#> #   ²​WeekendDays
…
