…
## Examples

``` r
pq_data %>% extract_hr(return = "names")
#> [1] "FunctionType"        "SupervisorIndicator" "Level"              
#> [4] "Organization"        "LevelDesignation"   

pq_data %>% extract_hr(return = "vars")
#> # A tibble: 6,900 × 5
#>    FunctionType SupervisorIndicator Level  Organization LevelDesignation
#>    <chr>        <chr>               <chr>  <chr>        <chr>           
#>  1 Specialist   Manager             Level3 IT           Senior IC       
#>  2 Consultant   Manager             Level2 Legal        Senior Manager  
#>  3 Advisor      Manager             Level4 Legal        Junior IC       
#>  4 Consultant   Manager             Level1 HR           Executive       
#>  5 Technician   Manager             Level1 Finance      Executive       
#>  6 Advisor      Manager             Level3 Finance      Senior IC       
#>  7 Specialist   IC                  Level4 Finance      Junior IC       
#>  8 Advisor      Manager             Level3 IT           Senior IC       
#>  9 Manager      Manager             Level3 HR           Senior IC       
#> 10 Advisor      Manager             Level1 IT           Executive       
#> # ℹ 6,890 more rows
```
