…
spq_df$WorkingStartTimeSetInOutlook <- "6:30"

spq_df$WorkingEndTimeSetInOutlook <- "23:30"

# Return a message
flag_outlooktime(spq_df, threshold = c(5, 13))
#> [Warning]  100% (6900) of the person-date rows in the data have extreme Outlook settings.
#> 0% (0)  have an Outlook workday shorter than 5 hours, while 100% (6900) have a workday longer than 13 hours.

# Return data
flag_outlooktime(spq_df, threshold = c(5, 13), return = "data")
#> # A tibble: 6,900 × 5
#>    PersonId                   WorkdayRange WorkdayFlag WorkdayFlag1 WorkdayFlag2
#>    <chr>                             <dbl> <lgl>       <lgl>        <lgl>       
#>  1 7d99f98f-c0a6-4df9-b2c3-e…           17 TRUE        FALSE        TRUE        
#>  2 68d86466-5864-45f1-9c15-6…           17 TRUE        FALSE        TRUE        
#>  3 8c64bf0d-57fe-4a89-a538-d…           17 TRUE        FALSE        TRUE        
#>  4 3a12dcc6-c5d5-46e4-a1d2-0…           17 TRUE        FALSE        TRUE        
#>  5 a8f3ad16-01ea-4991-8d88-0…           17 TRUE        FALSE        TRUE        
#>  6 d83e45d2-a702-4ec8-a84a-b…           17 TRUE        FALSE        TRUE        
#>  7 137926f2-3ca2-494f-8d70-9…           17 TRUE        FALSE        TRUE        
#>  8 29f24721-5f90-4219-a628-7…           17 TRUE        FALSE        TRUE        
#>  9 f0dff723-68b7-4f89-98e3-c…           17 TRUE        FALSE        TRUE        
#> 10 f04fbe6e-bf02-42df-847d-a…           17 TRUE        FALSE        TRUE        
#> # ℹ 6,890 more rows
```
