…
## Examples

``` r
# Return plot
hr_trend(pq_data)


# Return summary table
hr_trend(pq_data, return = "table")
#> # A tibble: 23 × 2
#>    Date           n
#>    <date>     <int>
#>  1 2024-04-28   300
#>  2 2024-05-05   300
#>  3 2024-05-12   300
#>  4 2024-05-19   300
#>  5 2024-05-26   300
#>  6 2024-06-02   300
#>  7 2024-06-09   300
#>  8 2024-06-16   300
#>  9 2024-06-23   300
#> 10 2024-06-30   300
#> # ℹ 13 more rows
```
