…
# Return summary table
identify_usage_segments(
  data = pq_data,
  metric = "Emails_sent",
  version = "12w",
  return = "table"
)
#> Usage segments summary table (12-week version)
#> # A tibble: 23 × 4
#>    MetricDate `Novice User` `Power User`     n
#>    <date>             <dbl>        <dbl> <int>
#>  1 2024-04-28             1            0   300
#>  2 2024-05-05             1            0   300
#>  3 2024-05-12             1            0   300
#>  4 2024-05-19             1            0   300
#>  5 2024-05-26             1            0   300
#>  6 2024-06-02             1            0   300
#>  7 2024-06-09             1            0   300
#>  8 2024-06-16             1            0   300
#>  9 2024-06-23             0            1   300
#> 10 2024-06-30             0            1   300
#> # ℹ 13 more rows
```
