Identify whether a habitual behaviour exists over a given interval of time — identify_habit • vivainsights
…
# Return a summary
identify_habit(
  pq_data,
  metric = "Multitasking_hours",
  threshold = 1,
  width = 9,
  max_window = 12,
  return = "summary"
)
#> # A tibble: 21 × 2
#>    Statistics                                    Value
#>    <chr>                                         <dbl>
#>  1 Most recent week - Total persons with habit 218    
#>  2 Most recent week - % of pop with habit        0.727
#>  3 Total Persons who have lost habit           128    
#>  4 % of Persons who have lost habit              0.427
#>  5 Total Persons who have gained habit         287    
#>  6 % of Persons who have gained habit            0.957
#>  7 Mean - % of Person-weeks with habit           0.405
#>  8 Min - % of Person-weeks with habit            0    
#>  9 p10                                           0.126
#> 10 p25                                           0.293
#> # ℹ 11 more rows
…
