Identify groups under privacy threshold — identify_privacythreshold • vivainsights
…
    Examples

# Return a summary table
pq_data %>% identify_privacythreshold(return = "table")
#> # A tibble: 22 × 3
#>    hrvar               group                                   n
#>    <chr>               <chr>                               <int>
#>  1 WeekendDays         [SUNDAY, TUESDAY, FRIDAY, SATURDAY]     1
#>  2 LevelDesignation    Director                                6
#>  3 SupervisorIndicator Manager+                                6
#>  4 FunctionType        G_and_A                                 6
#>  5 LevelDesignation    Junior IC                              10
#>  6 LevelDesignation    Manager                                11
#>  7 SupervisorIndicator Manager                                11
#>  8 FunctionType        Sales                                  11
#>  9 FunctionType        IT                                     11
#> 10 FunctionType        Analytics                              12
#> # ℹ 12 more rows
…
