Summarise node centrality statistics with an igraph object — network_summary • vivainsights
…
    Examples

# Simulate a p2p network
p2p_data <- p2p_data_sim(size = 100)
g <- network_p2p(data = p2p_data, return = "network")

# Return summary table
network_summary(graph = g, return = "table")
#> # A tibble: 100 × 6
#>    node_id   betweenness closeness degree eigenvector pagerank
#>    <chr>           <dbl>     <dbl>  <dbl>       <dbl>    <dbl>
#>  1 SIM_ID_1         0        0.293      9       0.715  0.00198
#>  2 SIM_ID_2        23.2      0.321     11       0.837  0.00217
#>  3 SIM_ID_3        11.1      0.314     11       0.829  0.00236
#>  4 SIM_ID_4         9.14     0.294      9       0.692  0.00258
#>  5 SIM_ID_5        87.5      0.331     11       0.805  0.00294
#>  6 SIM_ID_6        37.1      0.294      9       0.653  0.00312
#>  7 SIM_ID_7        53.6      0.305     10       0.731  0.00364
#>  8 SIM_ID_8       191.       0.354     13       0.943  0.00408
#>  9 SIM_ID_10      129.       0.333     11       0.775  0.00339
#> 10 SIM_ID_11       35.5      0.258     10       0.659  0.00484
#> # ℹ 90 more rows
…
