Perform network analysis with the person-to-person query — network_p2p • vivainsights
…
# \donttest{
# return vertex table with community detection
network_p2p(data = p2p_df, community = "leiden", return = "table")
#> # A tibble: 100 × 3
#>    Organization cluster     n
#>    <chr>        <chr>   <int>
#>  1 Org A        14          1
#>  2 Org A        21          1
#>  3 Org A        28          1
#>  4 Org A        40          1
#>  5 Org A        53          1
#>  6 Org A        60          1
#>  7 Org A        67          1
#>  8 Org A        7           1
#>  9 Org A        72          1
#> 10 Org A        74          1
#> # ℹ 90 more rows
…
