…
# \donttest{
# return vertex table with community detection
network_p2p(data = p2p_df, community = "leiden", return = "table")
#> # A tibble: 100 × 3
#>    Organization cluster     n
#>    <chr>        <chr>   <int>
#>  1 Org A        14          1
#>  2 Org A        20          1
#>  3 Org A        26          1
#>  4 Org A        32          1
#>  5 Org A        38          1
#>  6 Org A        45          1
#>  7 Org A        52          1
#>  8 Org A        58          1
#>  9 Org A        64          1
#> 10 Org A        7           1
#> # ℹ 90 more rows
…
