Manager 1:1 Time Ranking — one2one_rank • vivainsights
…
Other Managerial Relations:
one2one_dist(),
one2one_fizz(),
one2one_freq(),
one2one_line(),
one2one_sum(),
one2one_trend()

    Examples

# Return rank table
one2one_rank(data = pq_data, return = "table")
#> # A tibble: 22 × 4
#>    hrvar               group      Meeting_and_call_hours_with_manager_1_1     n
#>    <chr>               <chr>                                        <dbl> <int>
#>  1 FunctionType        Technician                                   0.968   274
#>  2 SupervisorIndicator IC                                           0.929    34
#>  3 Organization        Sales                                        0.924    13
#>  4 Organization        Research                                     0.907    52
#>  5 Organization        Finance                                      0.895    68
#>  6 FunctionType        Specialist                                   0.894   300
#>  7 Level               Level4                                       0.892   136
#>  8 LevelDesignation    Junior IC                                    0.892   136
#>  9 Level               Level1                                       0.885    37
#> 10 LevelDesignation    Executive                                    0.885    37
#> # ℹ 12 more rows
…
