…
## See also

Other Text-mining:
[`meeting_tm_report()`](https://microsoft.github.io/vivainsights/reference/meeting_tm_report.md),
[`pairwise_count()`](https://microsoft.github.io/vivainsights/reference/pairwise_count.md),
[`tm_cooc()`](https://microsoft.github.io/vivainsights/reference/tm_cooc.md),
[`tm_freq()`](https://microsoft.github.io/vivainsights/reference/tm_freq.md),
[`tm_wordcloud()`](https://microsoft.github.io/vivainsights/reference/tm_wordcloud.md)

## Examples

``` r
# words
tm_clean(mt_data)
#> # A tibble: 1,039 × 2
#>     line word 
#>    <int> <chr>
#>  1     1 focus
#>  2     1 time 
#>  3     2 focus
#>  4     2 time 
#>  5     3 focus
#>  6     3 time 
#>  7     4 focus
#>  8     4 time 
#>  9     5 focus
#> 10     5 time 
#> # ℹ 1,029 more rows

# ngrams
tm_clean(mt_data, token = "ngrams")
#> # A tibble: 692 × 2
#>     line word 
#>    <int> <chr>
#>  1     1 NA   
#>  2     2 NA   
#>  3     3 NA   
#>  4     4 NA   
#>  5     5 NA   
#>  6     6 NA   
#>  7     7 NA   
#>  8     8 NA   
#>  9     9 NA   
#> 10    10 NA   
#> # ℹ 682 more rows
```
