Clean subject line text prior to analysis — tm_clean • vivainsights
…
    See also

    Other Text-mining:
meeting_tm_report(),
pairwise_count(),
tm_cooc(),
tm_freq(),
tm_wordcloud()

    Examples

# words
tm_clean(mt_data)
#> # A tibble: 1,039 × 2
#>     line word 
#>    <int> <chr>
#>  1     1 focus
#>  2     1 time 
#>  3     2 focus
#>  4     2 time 
#>  5     3 focus
#>  6     3 time 
#>  7     4 focus
#>  8     4 time 
#>  9     5 focus
#> 10     5 time 
#> # ℹ 1,029 more rows

# ngrams
tm_clean(mt_data, token = "ngrams")
#> # A tibble: 692 × 2
#>     line word 
#>    <int> <chr>
#>  1     1 NA   
#>  2     2 NA   
#>  3     3 NA   
#>  4     4 NA   
#>  5     5 NA   
#>  6     6 NA   
#>  7     7 NA   
#>  8     8 NA   
#>  9     9 NA   
#> 10    10 NA   
#> # ℹ 682 more rows
…
