…
``` r
# circular network plot with words
tm_freq(mt_data, token = "words")
#> Selecting by n


# circular network plot with ngrams
tm_freq(mt_data, token = "ngrams")
#> Selecting by n


# summary table of text frequency
tm_freq(mt_data, token = "words", return = "table")
#> Selecting by n
#> # A tibble: 35 × 2
#>    word         n
#>    <chr>    <int>
#>  1 time       291
#>  2 focus      279
#>  3 break      125
#>  4 catch       48
#>  5 messages    48
#>  6 day         47
#>  7 meeting     47
#>  8 lunch       41
#>  9 canceled    36
#> 10 obed        26
#> # ℹ 25 more rows
```
