Identifying noteworthy groups with rank functions • vivainsights
…
To get started, let’s open a new session in R and load the vivainsights
R package. We will also use dplyr to facilitate
data manipulation:

library(vivainsights)
library(dplyr)

We will use the pq_data demo dataset, which contains a
weekly person query output, and apply the
collaboration_rank() function:

pq_data %>% 
    collaboration_rank(return = "table")
#> # A tibble: 22 × 4
#>    hrvar            group      Collaboration_hours     n
#>    <chr>            <chr>                    <dbl> <int>
#>  1 FunctionType     Technician                23.6   274
#>  2 Organization     Operations                23.5    22
#>  3 Organization     Research                  23.3    52
#>  4 Level            Level1                    23.2    37
#>  5 LevelDesignation Executive                 23.2    37
#>  6 Organization     HR                        23.1    33
#>  7 Level            Level3                    23.1    87
#>  8 LevelDesignation Senior IC                 23.1    87
#>  9 Organization     Finance                   23.1    68
#> 10 Organization     Sales                     23.1    13
#> # ℹ 12 more rows
…
The rank function includes an additional mode called “combine” that
allows us to take our analysis one step further by performing on two HR
variables the same analysis in a combinatorial manner:

pq_data %>% 
    collaboration_rank(return = "table", mode = "combine")
#> # A tibble: 308 × 4
#>    hrvar    group                                      Collaboration_hours     n
#>    <chr>    <chr>                                                    <dbl> <int>
#>  1 Combined [FunctionType] Technician [SupervisorIndi…                23.8   243
#>  2 Combined [FunctionType] Consultant [SupervisorIndi…                23.1    33
#>  3 Combined [FunctionType] Advisor [SupervisorIndicat…                23.1   260
#>  4 Combined [FunctionType] Manager [SupervisorIndicat…                23.0   266
#>  5 Combined [FunctionType] Consultant [SupervisorIndi…                23.0   255
#>  6 Combined [FunctionType] Specialist [SupervisorIndi…                23.0   266
#>  7 Combined [FunctionType] Specialist [SupervisorIndi…                22.8    34
#>  8 Combined [FunctionType] Advisor [SupervisorIndicat…                22.6    33
#>  9 Combined [FunctionType] Manager [SupervisorIndicat…                22.5    34
#> 10 Combined [FunctionType] Technician [SupervisorIndi…                21.7    31
#> # ℹ 298 more rows
…
To answer that question, let’s create a new numeric custom metric
(i.e. a binary flag that is only either 1 or
0) and then apply the create_rank()
function:

pq_data %>%
    mutate(At_risk = ifelse(Collaboration_hours > 20 &  Collaboration_span > 60 , 1, 0)) %>%
    create_rank(metric = "At_risk", mode = "combine")
#> # A tibble: 308 × 4
#>    hrvar    group                                                  At_risk     n
#>    <chr>    <chr>                                                    <dbl> <int>
#>  1 Combined [FunctionType] Advisor [SupervisorIndicator] IC              0    33
#>  2 Combined [FunctionType] Advisor [SupervisorIndicator] Manager         0   260
#>  3 Combined [FunctionType] Consultant [SupervisorIndicator] IC           0    33
#>  4 Combined [FunctionType] Consultant [SupervisorIndicator] Manag…       0   255
#>  5 Combined [FunctionType] Manager [SupervisorIndicator] IC              0    34
#>  6 Combined [FunctionType] Manager [SupervisorIndicator] Manager         0   266
#>  7 Combined [FunctionType] Specialist [SupervisorIndicator] IC           0    34
#>  8 Combined [FunctionType] Specialist [SupervisorIndicator] Manag…       0   266
#>  9 Combined [FunctionType] Technician [SupervisorIndicator] IC           0    31
#> 10 Combined [FunctionType] Technician [SupervisorIndicator] Manag…       0   243
#> # ℹ 298 more rows
…
